{
    "id": "com.modxvm.xvm.integrity",
    "name": "XVM Integrity",
    "description": "XVM Integrity Module",

    "version": "XVM_VERSION",
    "dependencies": ["com.modxvm.xvm"],

    "url": "https://modxvm.com/",
    "url_update": "https://modxvm.com/",

    "wot_version_min": "WOT_VERSION",
    "wot_version_exactmatch": false,

    "features": ["python"]
}
